//===========================================================================================================================
TODO: aho_corasick_automaton

//===========================================================================================================================
SOURCES:
https://neerc.ifmo.ru/wiki/index.php?title=%D0%90%D0%BB%D0%B3%D0%BE%D1%80%D0%B8%D1%82%D0%BC_%D0%90%D1%85%D0%BE-%D0%9A%D0%BE%D1%80%D0%B0%D1%81%D0%B8%D0%BA

//===========================================================================================================================
