//===========================================================================================================================
Сравнение Дек-Дерева поиска и Бин-Дерева поиска

Построение Деревьев - стандартным образом

Поиск максимальной высоты:
Рекурсивным проходом с сохранением текущей максимальной высоты.

Поиск максимальной ширины:
Рекурсивным проходом заполняем количество элементов на каждой высоте.
Дальше находим максимум по всем уровням.

АСИМПОТИКА:
O(N) - для нахождения обоих макс высоты и ширины.

TODO rename tree to search_tree
//===========================================================================================================================
SOURCES:
http://e-maxx.ru/algo/treap
https://neerc.ifmo.ru/wiki/index.php?title=%D0%94%D0%B5%D0%BA%D0%B0%D1%80%D1%82%D0%BE%D0%B2%D0%BE_%D0%B4%D0%B5%D1%80%D0%B5%D0%B2%D0%BE

//===========================================================================================================================
